…
Usage
-----

### What was The Beatles' favorite key?

``` r
library(spotifyr)
```

``` r
beatles <- get_artist_audio_features('the beatles')

count(beatles, key_mode, sort = T)
#> # A tibble: 22 x 2
#>    key_mode     n
#>       <chr> <int>
#>  1  C major    40
#>  2  D major    38
#>  3  A major    33
#>  4  G major    33
#>  5  E major    20
#>  6  F major    13
#>  7  B minor     9
#>  8  A minor     8
#>  9 C# minor     8
#> 10 F# minor     8
#> # ... with 12 more rows
```
…
