Pull Track Audio Features from the 'Spotify' Web API • spotifyr
…
access_token <- get_spotify_access_token()

Usage

What was The Beatles’ favorite key?

library(spotifyr)

beatles <- get_artist_audio_features('the beatles')

library(tidyverse)
count(beatles, key_mode, sort = T)
#> # A tibble: 22 x 2
#>    key_mode     n
#>    <chr>    <int>
#>  1 C major     46
#>  2 D major     41
#>  3 G major     38
#>  4 A major     36
#>  5 E major     21
#>  6 F major     18
#>  7 A minor     11
#>  8 B minor     10
#>  9 E minor     10
#> 10 C# minor     9
#> # ... with 12 more rows
…
